…
returns <-
      monthly_prices %>%
      group_by(ticker) %>%
      mutate(return = adjusted / lag(adjusted) - 1) %>%
      filter(date >= start_date, date <= end_date) %>%
      mutate(index = adjusted / adjusted[1]) %>%
      arrange(ticker, date) %>%
      ungroup() %>% 
      drop_na() %>%
      left_join(rf_monthly %>% rename(Rf = monthly_rate), by = "date")
      
returns

## # A tibble: 1,329 x 6
##    date       ticker      adjusted   return index      Rf
##    <date>     <chr>          <dbl>    <dbl> <dbl>   <dbl>
##  1 2006-08-31 commodities     47.1 -0.0713  0.929 0.00395
##  2 2006-09-30 commodities     42.1 -0.107   0.829 0.00387
##  3 2006-10-31 commodities     41   -0.0254  0.808 0.00384
##  4 2006-11-30 commodities     43.0  0.0500  0.848 0.00372
##  5 2006-12-31 commodities     40.1 -0.0692  0.790 0.00392
##  6 2007-01-31 commodities     39.0 -0.0255  0.769 0.00402
##  7 2007-02-28 commodities     40.5  0.0371  0.798 0.0038 
##  8 2007-03-31 commodities     41.5  0.0247  0.818 0.00388
##  9 2007-04-30 commodities     41.7  0.00458 0.821 0.00386
## 10 2007-05-31 commodities     41.2 -0.0118  0.812 0.00408
## # ... with 1,319 more rows
…
