Logistic regression with stock returns
…
tickers_to_use

## # A tibble: 193 x 1
##    ticker
##    <chr> 
##  1 AAPL  
##  2 ABT   
##  3 ACIW  
##  4 ADBE  
##  5 ADP   
##  6 AEE   
##  7 AME   
##  8 AMED  
##  9 AMGN  
## 10 AMT   
## # ... with 183 more rows
…
